{
  "data": [
    {
      "category": "3.10",
      "date": "2024-09",
      "downloads": 226
    },
    {
      "category": "3.10",
      "date": "2024-10",
      "downloads": 263
    },
    {
      "category": "3.10",
      "date": "2024-11",
      "downloads": 254
    },
    {
      "category": "3.10",
      "date": "2024-12",
      "downloads": 252
    },
    {
      "category": "3.10",
      "date": "2025-01",
      "downloads": 295
    },
    {
      "category": "3.10",
      "date": "2025-02",
      "downloads": 389
    },
    {
      "category": "3.10",
      "date": "2025-03",
      "downloads": 122
    },
    {
      "category": "3.11",
      "date": "2024-09",
      "downloads": 903
    },
    {
      "category": "3.11",
      "date": "2024-10",
      "downloads": 4360
    },
    {
      "category": "3.11",
      "date": "2024-11",
      "downloads": 435
    },
    {
      "category": "3.11",
      "date": "2024-12",
      "downloads": 564
    },
    {
      "category": "3.11",
      "date": "2025-01",
      "downloads": 701
    },
    {
      "category": "3.11",
      "date": "2025-02",
      "downloads": 4873
    },
    {
      "category": "3.11",
      "date": "2025-03",
      "downloads": 4767
    },
    {
      "category": "3.12",
      "date": "2024-09",
      "downloads": 216
    },
    {
      "category": "3.12",
      "date": "2024-10",
      "downloads": 240
    },
    {
      "category": "3.12",
      "date": "2024-11",
      "downloads": 244
    },
    {
      "category": "3.12",
      "date": "2024-12",
      "downloads": 250
    },
    {
      "category": "3.12",
      "date": "2025-01",
      "downloads": 254
    },
    {
      "category": "3.12",
      "date": "2025-02",
      "downloads": 240
    },
    {
      "category": "3.12",
      "date": "2025-03",
      "downloads": 56
    },
    {
      "category": "3.13",
      "date": "2025-01",
      "downloads": 2
    },
    {
      "category": "3.8",
      "date": "2024-09",
      "downloads": 216
    },
    {
      "category": "3.8",
      "date": "2024-10",
      "downloads": 240
    },
    {
      "category": "3.8",
      "date": "2024-11",
      "downloads": 244
    },
    {
      "category": "3.8",
      "date": "2024-12",
      "downloads": 252
    },
    {
      "category": "3.8",
      "date": "2025-01",
      "downloads": 248
    },
    {
      "category": "3.8",
      "date": "2025-02",
      "downloads": 216
    },
    {
      "category": "3.8",
      "date": "2025-03",
      "downloads": 56
    },
    {
      "category": "3.9",
      "date": "2024-10",
      "downloads": 10
    },
    {
      "category": "3.9",
      "date": "2024-11",
      "downloads": 4
    },
    {
      "category": "3.9",
      "date": "2025-02",
      "downloads": 2
    },
    {
      "category": "3.9",
      "date": "2025-03",
      "downloads": 2
    },
    {
      "category": "null",
      "date": "2024-09",
      "downloads": 185
    },
    {
      "category": "null",
      "date": "2024-10",
      "downloads": 580
    },
    {
      "category": "null",
      "date": "2024-11",
      "downloads": 238
    },
    {
      "category": "null",
      "date": "2024-12",
      "downloads": 240
    },
    {
      "category": "null",
      "date": "2025-01",
      "downloads": 292
    },
    {
      "category": "null",
      "date": "2025-02",
      "downloads": 178
    },
    {
      "category": "null",
      "date": "2025-03",
      "downloads": 90
    }
  ],
  "package": "foran",
  "type": "python_minor_downloads"
}
